[gd_scene load_steps=6 format=2]

[ext_resource path="res://scripts/enemy.gd" type="Script" id=1]
[ext_resource path="res://scenes/hit_point_label.tscn" type="PackedScene" id=2]
[ext_resource path="res://textures/0x72_16x16DungeonTileset.v4.png" type="Texture" id=3]

[sub_resource type="CircleShape2D" id=1]

custom_solver_bias = 0.0
radius = 8.0

[sub_resource type="Animation" id=2]

resource_name = "hit"
length = 0.15
loop = false
step = 0.01
tracks/0/type = "value"
tracks/0/path = NodePath("Sprite:modulate")
tracks/0/interp = 1
tracks/0/loop_wrap = true
tracks/0/imported = false
tracks/0/enabled = true
tracks/0/keys = {
"times": PoolRealArray( 0, 0.15 ),
"transitions": PoolRealArray( -0.25, -0.25 ),
"update": 0,
"values": [ Color( 1, 0.03125, 0.03125, 1 ), Color( 1, 1, 1, 1 ) ]
}
tracks/1/type = "value"
tracks/1/path = NodePath("Sprite:scale")
tracks/1/interp = 1
tracks/1/loop_wrap = true
tracks/1/imported = false
tracks/1/enabled = true
tracks/1/keys = {
"times": PoolRealArray( 0, 0.07, 0.15 ),
"transitions": PoolRealArray( 4, 4, 1 ),
"update": 0,
"values": [ Vector2( 1, 1 ), Vector2( 0.85, 1.1 ), Vector2( 1, 1 ) ]
}

[node name="enemy" type="KinematicBody2D" index="0"]

input_pickable = false
collision_layer = 16
collision_mask = 27
collision/safe_margin = 0.08
script = ExtResource( 1 )
_sections_unfolded = [ "Collision" ]
__meta__ = {
"_edit_group_": true
}
health = 10
hit_point_label = ExtResource( 2 )

[node name="CollisionShape2D" type="CollisionShape2D" parent="." index="0"]

shape = SubResource( 1 )

[node name="Sprite" type="Sprite" parent="." index="1"]

texture = ExtResource( 3 )
region_enabled = true
region_rect = Rect2( 32, 160, 16, 16 )
_sections_unfolded = [ "Transform", "Visibility" ]

[node name="AnimationPlayer" type="AnimationPlayer" parent="." index="2"]

root_node = NodePath("..")
autoplay = ""
playback_process_mode = 1
playback_default_blend_time = 0.0
playback_speed = 1.0
anims/hit = SubResource( 2 )
blend_times = [  ]
_sections_unfolded = [ "Playback Options" ]


