[gd_scene load_steps=5 format=2]

[ext_resource path="res://scripts/player.gd" type="Script" id=1]
[ext_resource path="res://textures/0x72_16x16DungeonTileset.v4.png" type="Texture" id=2]

[sub_resource type="CircleShape2D" id=1]

custom_solver_bias = 0.0
radius = 6.0

[sub_resource type="CircleShape2D" id=2]

custom_solver_bias = 0.0
radius = 60.0

[node name="player" type="KinematicBody2D" index="0"]

input_pickable = false
collision_layer = 1
collision_mask = 24
collision/safe_margin = 0.08
script = ExtResource( 1 )
_sections_unfolded = [ "Collision", "Transform" ]
on_device = true
max_speed = 50
max_joystick_move = 30
joystick_path = null

[node name="CollisionShape2D" type="CollisionShape2D" parent="." index="0"]

shape = SubResource( 1 )

[node name="Sprite" type="Sprite" parent="." index="1"]

texture = ExtResource( 2 )
region_enabled = true
region_rect = Rect2( 64, 128, 16, 16 )

[node name="Area2D" type="Area2D" parent="." index="2"]

input_pickable = true
space_override = 3
gravity_vec = Vector2( 1, 0 )
gravity = 98.0
linear_damp = 0.1
angular_damp = 1.0
collision_layer = 4
collision_mask = 2
audio_bus_override = false
audio_bus_name = "Master"
_sections_unfolded = [ "Collision" ]

[node name="CollisionShape2D" type="CollisionShape2D" parent="Area2D" index="0"]

shape = SubResource( 2 )


